文献阅读的文本分析流派 - Miao Yu | 于淼
…
    2695 字
    
    文献阅读的文本分析流派

   于淼 ·   2017/06/16

      读文献是科研人员的基本功，一方面是了解学科发展，另一方面更现实一点，就是为了发文章。起步阶段读论文一般是模仿与学习，但到了中后期如果你的视野不够开阔，很容易陷入到安全区陷阱，认为自己做自己那一小摊就挺好，其实很有可能大浪过来，全军覆没，说直白点就是申不到钱，课题与项目运转不下去，思路也会枯竭。当你去开学术会议时，那些大会报告的报告人的开场总有个全局概览的视野，这种评论是需要经验去堆的，但其实也挺虚的：你回头去看容易知道哪里有坑哪里有丘，但身处时代浪潮之中是不太容易感知趋势的。

但传统基于核心关键词的检索跟全局观是本质相悖的，核心关键词往往限制了内容，虽然有利于聚焦但不利于发散与概览。不过当前文献数据空前开放，如果你有类似全局视野问题，是可以自己探索的。这里要用到一个名为自然语言处理（NLP）的工具，简单说就是我不去看单篇文献或荟萃分析，而是通过语义关系探索大量文献中的潜在模式，进而找出热点。今天我用pubmed这个免费的文摘数据库来做个演示，探索下科学研究的整体前沿，结论不一定对，但方法思路如果你能掌握并举一反三，会有发现新大陆的感觉。

数据获取

数据获取思路是这样的：如果想知道整体前沿，最需要的是综合类期刊，全文的数据量我的笔记本也跑不了，就考虑摘要，这样也过滤了那些没有摘要的评论与观点，更多关注研究性论文。期刊选择为综合类的《科学》、《自然》与《美国科学院院刊》，收集2016年一整年的论文摘要，用easyPubmed包来搜索并整理成相对干净的数据集。这里我只收集了题目、摘要、出版期刊与日期进行文本数据挖掘。

## # A tibble: 8,815 x 6
##                                                                          title
##                                                                          <chr>
##  1 A high-throughput small molecule screen identifies synergism between DNA me
##  2                       2017 sneak peek: What the new year holds for science.
##  3                            Wolf transplant could reset iconic island study.
##  4 Scientists in Germany, Peru and Taiwan to lose access to Elsevier journals.
##  5                                                   How scientists use Slack.
##  6                 Saliva protein biomarkers and oral squamous cell carcinoma.
##  7 Reply to Galvão-Moreira and da Cruz: Saliva biomarkers to complement the vi
##  8         Cell morphology drives spatial patterning in microbial communities.
##  9                 Deborah S. Jin 1968-2016: Trailblazer of ultracold science.
## 10 Autophagy wins the 2016 Nobel Prize in Physiology or Medicine: Breakthrough
## # ... with 8,805 more rows, and 5 more variables: abstract <chr>,
## #   year <chr>, month <chr>, day <chr>, jabbrv <chr>
…
