Play with HMDB datasets: Part II - Miao Yu | 于淼
…
We have 13429 monisotopic molecular weight, 11762 chemical formula, 113900 smiles among the 114066 metabolites, which means for each monisotopic molecular weight, you could find ~8.5 metabolites. Different smiles means different structures and this is the main reason why we need MS/MS data. However, we could check the ratio in details.

library(tidyverse)
hmdb %>%
        group_by(super_class) %>%
        summarize(ratio = length(unique(monisotopic_molecular_weight))/length(unique(smiles))) %>%
        ungroup()

## # A tibble: 28 x 2
##    super_class                                ratio
##    <chr>                                      <dbl>
##  1 Acetylides                                1.00  
##  2 Alkaloids and derivatives                 0.761 
##  3 Benzenoids                                0.572 
##  4 Homogeneous metal compounds               0.980 
##  5 Homogeneous non-metal compounds           0.972 
##  6 Hydrocarbon derivatives                   0.800 
##  7 Hydrocarbons                              0.456 
##  8 Inorganic compounds                       1.00  
##  9 Lignans, neolignans and related compounds 0.669 
## 10 Lipids and lipid-like molecules           0.0604
## # ... with 18 more rows
…
