Text mining for top academic journals - Miao Yu | 于淼
…
xml2_1 <- getpubmed(query, start = 1, end = 10000)
xml2_2 <- getpubmed(query, start = 10001, end = 20000)
xml2_3 <- getpubmed(query, start = 20001, end = 26559)

tmdf1 <- getpubmedtbl(xml2_1)
tmdf2 <- getpubmedtbl(xml2_2)
tmdf3 <- getpubmedtbl(xml2_3)

tmdf <- bind_rows(tmdf1,tmdf2,tmdf3) %>%
        mutate(time = as.POSIXct(date, origin = "1970-01-01"),
         month = round_date(date, "month"))

tmdf

## # A tibble: 26,559 x 7
##                          journal
##                            <chr>
##  1                        Nature
##  2                        Nature
##  3 Proc. Natl. Acad. Sci. U.S.A.
##  4 Proc. Natl. Acad. Sci. U.S.A.
##  5                       Science
##  6                       Science
##  7                       Science
##  8                       Science
##  9                       Science
## 10                       Science
## # ... with 26,549 more rows, and 6 more variables: title <chr>,
## #   date <date>, abstract <chr>, line <int>, time <dttm>, month <date>
…
